…
### Getting our data and some early processing

From the same google drive folder linked above, you can download the
data set, `fyke_grebs.rds` and put it in the current working directory.

Then read it in and have a look at it:

``` r
fyke_grebs <- read_rds("fyke_grebs.rds")

fyke_grebs
```

    ## # A tibble: 17,520 × 24
    ##    indiv   spawner_group sex    year hatchery ArchiveID LENGTH Method collection
    ##    <chr>   <chr>         <chr> <dbl> <chr>    <chr>      <dbl> <chr>  <chr>     
    ##  1 M096525 8/24/16       Male   2017 fyke     M096525      464 FYKE … CH        
    ##  2 M096525 8/24/16       Male   2017 fyke     M096525      464 FYKE … CH        
    ##  3 M096525 8/24/16       Male   2017 fyke     M096525      464 FYKE … CH        
    ##  4 M096525 8/24/16       Male   2017 fyke     M096525      464 FYKE … CH        
    ##  5 M096525 8/24/16       Male   2017 fyke     M096525      464 FYKE … CH        
    ##  6 M096525 8/24/16       Male   2017 fyke     M096525      464 FYKE … CH        
    ##  7 M096525 8/24/16       Male   2017 fyke     M096525      464 FYKE … CH        
    ##  8 M096525 8/24/16       Male   2017 fyke     M096525      464 FYKE … CH        
    ##  9 M096525 8/24/16       Male   2017 fyke     M096525      464 FYKE … CH        
    ## 10 M096525 8/24/16       Male   2017 fyke     M096525      464 FYKE … CH        
    ## # ℹ 17,510 more rows
    ## # ℹ 15 more variables: SpawnYear <dbl>, kid_year <dbl>, kid_hatchery <chr>,
    ## #   ma_hatchery <chr>, age_spawn <dbl>, mo_dat <dbl>, mo_da <dbl>,
    ## #   program_assn <chr>, Locus <chr>, Locus_new <chr>, genecopy_1 <chr>,
    ## #   genecopy_2 <chr>, genotype_number <dbl>, genotype <chr>, typed_final <chr>

There is a lot of stuff there. Let’s look at the number of records for
different subsets we will be breaking it out into:

``` r
fyke_grebs %>%
  count(collection, Locus_new)
```

    ## # A tibble: 100 × 3
    ##    collection Locus_new                         n
    ##    <chr>      <chr>                         <int>
    ##  1 CH         Omy_Ch28_11622532_B_position1   472
    ##  2 CH         Omy_Ch28_11623412_B_position1   472
    ##  3 CH         Omy_Ch28_11625241_C_position1   469
    ##  4 CH         Omy_Ch28_11629294_D_position1   461
    ##  5 CH         Omy_Ch28_11641623_D_position1   470
    ##  6 CH         Omy_Ch28_11658853_F_position1   472
    ##  7 CH         Omy_Ch28_11667578_F_position1   471
    ##  8 CH         Omy_Ch28_11676622_G_position1   375
    ##  9 CH         Omy_Ch28_11678603_G_position1   472
    ## 10 CH         Omy_Ch28_11683310_H_position1   434
    ## # ℹ 90 more rows
…
``` r
fg_nests <- fyke_grebs2 %>%
  group_by(group, Locus_new) %>%
  nest()

fg_nests
```

    ## # A tibble: 50 × 3
    ## # Groups:   group, Locus_new [50]
    ##    Locus_new                      group data               
    ##    <chr>                          <chr> <list>             
    ##  1 Omy_Ch28_greb1_mhap1_position1 CV    <tibble [631 × 26]>
    ##  2 Omy_Ch28_11658853_F_position1  CV    <tibble [637 × 26]>
    ##  3 Omy_Ch28_11622532_B_position1  CV    <tibble [638 × 26]>
    ##  4 Omy_Ch28_11623412_B_position1  CV    <tibble [637 × 26]>
    ##  5 Omy_Ch28_11641623_D_position1  CV    <tibble [636 × 26]>
    ##  6 Omy_Ch28_11629294_D_position1  CV    <tibble [626 × 26]>
    ##  7 Omy_Ch28_greb1_mhap2_position1 CV    <tibble [627 × 26]>
    ##  8 Omy_Ch28_11625241_C_position1  CV    <tibble [635 × 26]>
    ##  9 Omy_Ch28_greb1_mhap6_position1 CV    <tibble [637 × 26]>
    ## 10 Omy_Ch28_greb1_mhap8_position1 CV    <tibble [635 × 26]>
    ## # ℹ 40 more rows
…
Let’s make a new nested tibble where we group just on `Locus_new` so
that we are sure we have all the alleles seen in the whole data set.
Note that there are some rows of Locus_new that are NA, so we will toss
those.

``` r
fg_locus_nest <- fyke_grebs2 %>%
  filter(!is.na(Locus_new)) %>%
  group_by(Locus_new) %>%
  nest()

fg_locus_nest
```

    ## # A tibble: 24 × 2
    ## # Groups:   Locus_new [24]
    ##    Locus_new                      data               
    ##    <chr>                          <list>             
    ##  1 Omy_Ch28_greb1_mhap1_position1 <tibble [739 × 27]>
    ##  2 Omy_Ch28_11658853_F_position1  <tibble [745 × 27]>
    ##  3 Omy_Ch28_11622532_B_position1  <tibble [746 × 27]>
    ##  4 Omy_Ch28_11623412_B_position1  <tibble [745 × 27]>
    ##  5 Omy_Ch28_11641623_D_position1  <tibble [744 × 27]>
    ##  6 Omy_Ch28_11629294_D_position1  <tibble [732 × 27]>
    ##  7 Omy_Ch28_greb1_mhap2_position1 <tibble [735 × 27]>
    ##  8 Omy_Ch28_11625241_C_position1  <tibble [741 × 27]>
    ##  9 Omy_Ch28_greb1_mhap6_position1 <tibble [745 × 27]>
    ## 10 Omy_Ch28_greb1_mhap8_position1 <tibble [739 × 27]>
    ## # ℹ 14 more rows

We see that is 24 different SNPs. Let’s just look at the tibble in the
first row of the `data` column:

``` r
fg_locus_nest$data[[1]]
```

    ## # A tibble: 739 × 27
    ##    indiv   spawner_group sex    year hatchery ArchiveID LENGTH Method collection
    ##    <chr>   <chr>         <chr> <dbl> <chr>    <chr>      <dbl> <chr>  <chr>     
    ##  1 M096525 8/24/16       Male   2017 fyke     M096525      464 FYKE … CH        
    ##  2 M096526 9/1/16        Fema…  2017 fyke     M096526      448 FYKE … FRH       
    ##  3 M096527 9/7/16        Fema…  2017 fyke     M096527      452 FYKE … CH        
    ##  4 M096529 9/11/16       Male   2017 fyke     M096529      445 FYKE … MRH       
    ##  5 M096530 9/13/16       Male   2017 fyke     M096530      380 FYKE … CH        
    ##  6 M096532 9/22/16       Fema…  2017 fyke     M096532      431 FYKE … CH        
    ##  7 M096533 9/25/16       Male   2017 fyke     M096533      480 FYKE … CH        
    ##  8 M096534 9/26/16       Male   2017 fyke     M096534      478 FYKE … CH        
    ##  9 M096535 10/1/16       Male   2017 fyke     M096535      500 FYKE … CH        
    ## 10 M096536 11/30/16      Male   2017 fyke     M096536      500 FYKE … CH        
    ## # ℹ 729 more rows
    ## # ℹ 18 more variables: SpawnYear <dbl>, kid_year <dbl>, kid_hatchery <chr>,
    ## #   ma_hatchery <chr>, age_spawn <dbl>, mo_dat <dbl>, mo_da <dbl>,
    ## #   program_assn <chr>, Locus <chr>, genecopy_1 <chr>, genecopy_2 <chr>,
    ## #   genotype_number <dbl>, genotype <chr>, typed_final <chr>, sex_f <fct>,
    ## #   year_f <fct>, age_spawn_f <fct>, group <chr>
…
`map()` will apply a function (the `.f` argument) to each row of a
column (the `.x` argument) of a table, and it will return a list column.
So, we can use it inside `mutate()` like this:

``` r
locus_genos <- fg_locus_nest %>%
  mutate(geno_vec = map(.x = data, .f = possible_genos))

locus_genos
```

    ## # A tibble: 24 × 3
    ## # Groups:   Locus_new [24]
    ##    Locus_new                      data                geno_vec 
    ##    <chr>                          <list>              <list>   
    ##  1 Omy_Ch28_greb1_mhap1_position1 <tibble [739 × 27]> <chr [3]>
    ##  2 Omy_Ch28_11658853_F_position1  <tibble [745 × 27]> <chr [1]>
    ##  3 Omy_Ch28_11622532_B_position1  <tibble [746 × 27]> <chr [1]>
    ##  4 Omy_Ch28_11623412_B_position1  <tibble [745 × 27]> <chr [1]>
    ##  5 Omy_Ch28_11641623_D_position1  <tibble [744 × 27]> <chr [1]>
    ##  6 Omy_Ch28_11629294_D_position1  <tibble [732 × 27]> <chr [1]>
    ##  7 Omy_Ch28_greb1_mhap2_position1 <tibble [735 × 27]> <chr [3]>
    ##  8 Omy_Ch28_11625241_C_position1  <tibble [741 × 27]> <chr [3]>
    ##  9 Omy_Ch28_greb1_mhap6_position1 <tibble [745 × 27]> <chr [3]>
    ## 10 Omy_Ch28_greb1_mhap8_position1 <tibble [739 × 27]> <chr [3]>
    ## # ℹ 14 more rows
…
### Number of genotypes using `map_int()`

We will demonstrate how to use `map_int()` to make a new column that
gives the number of possible genotypes at each locus.

``` r
locus_genos %>%
  mutate(num_genos = map_int(.x = geno_vec, .f = length))
```

    ## # A tibble: 24 × 4
    ## # Groups:   Locus_new [24]
    ##    Locus_new                      data                geno_vec  num_genos
    ##    <chr>                          <list>              <list>        <int>
    ##  1 Omy_Ch28_greb1_mhap1_position1 <tibble [739 × 27]> <chr [3]>         3
    ##  2 Omy_Ch28_11658853_F_position1  <tibble [745 × 27]> <chr [1]>         1
    ##  3 Omy_Ch28_11622532_B_position1  <tibble [746 × 27]> <chr [1]>         1
    ##  4 Omy_Ch28_11623412_B_position1  <tibble [745 × 27]> <chr [1]>         1
    ##  5 Omy_Ch28_11641623_D_position1  <tibble [744 × 27]> <chr [1]>         1
    ##  6 Omy_Ch28_11629294_D_position1  <tibble [732 × 27]> <chr [1]>         1
    ##  7 Omy_Ch28_greb1_mhap2_position1 <tibble [735 × 27]> <chr [3]>         3
    ##  8 Omy_Ch28_11625241_C_position1  <tibble [741 × 27]> <chr [3]>         3
    ##  9 Omy_Ch28_greb1_mhap6_position1 <tibble [745 × 27]> <chr [3]>         3
    ## 10 Omy_Ch28_greb1_mhap8_position1 <tibble [739 × 27]> <chr [3]>         3
    ## # ℹ 14 more rows
…
Ultimately, we will want to run linear models on each of those 18 SNPs
in the two different groups (CV and NH), and when we do that, we need to
have those `geno_vec`’s. So, let’s make a tibble that has all the
tibbles we need for `lmer()` and also the geno_vec. We can toss the
monomorphic loci in the process in one fell swoop by doing an
`inner_join()` that only keeps rows with matching keys:

``` r
dat <- fg_nests %>%
  inner_join(polymorph_genos, by = join_by(Locus_new))
dat
```

    ## # A tibble: 36 × 4
    ## # Groups:   group, Locus_new [36]
    ##    Locus_new                       group data                geno_vec 
    ##    <chr>                           <chr> <list>              <list>   
    ##  1 Omy_Ch28_greb1_mhap1_position1  CV    <tibble [631 × 26]> <chr [3]>
    ##  2 Omy_Ch28_greb1_mhap2_position1  CV    <tibble [627 × 26]> <chr [3]>
    ##  3 Omy_Ch28_11625241_C_position1   CV    <tibble [635 × 26]> <chr [3]>
    ##  4 Omy_Ch28_greb1_mhap6_position1  CV    <tibble [637 × 26]> <chr [3]>
    ##  5 Omy_Ch28_greb1_mhap8_position1  CV    <tibble [635 × 26]> <chr [3]>
    ##  6 Omy_Ch28_11678603_G_position1   CV    <tibble [638 × 26]> <chr [3]>
    ##  7 Omy_Ch28_greb1_mhap10_position1 CV    <tibble [638 × 26]> <chr [3]>
    ##  8 Omy_Ch28_11667578_F_position1   CV    <tibble [637 × 26]> <chr [3]>
    ##  9 Omy_Ch28_11683310_H_position1   CV    <tibble [596 × 26]> <chr [3]>
    ## 10 Omy_Ch28_11684744_H_position1   CV    <tibble [619 × 26]> <chr [3]>
    ## # ℹ 26 more rows
…
Note that the vector for `model_formula` is a list of model formulas.
`tibble()` is smart enough to know that such a list should be a column
in a tibble. The same cannot be said about `data.frame()`, which is one
reason `tibble()` is superior for dealing with list columns.

Now we can use `expand_grid()` to get us all combinations of the rows in
`dat` with the rows in `model_tib`.

``` r
ready_for_lmer <- expand_grid(dat, model_tib)

ready_for_lmer
```

    ## # A tibble: 108 × 6
    ##    Locus_new                    group data     geno_vec model_name model_formula
    ##    <chr>                        <chr> <list>   <list>   <chr>      <list>       
    ##  1 Omy_Ch28_greb1_mhap1_positi… CV    <tibble> <chr>    vanilla    <formula>    
    ##  2 Omy_Ch28_greb1_mhap1_positi… CV    <tibble> <chr>    sex        <formula>    
    ##  3 Omy_Ch28_greb1_mhap1_positi… CV    <tibble> <chr>    age        <formula>    
    ##  4 Omy_Ch28_greb1_mhap2_positi… CV    <tibble> <chr>    vanilla    <formula>    
    ##  5 Omy_Ch28_greb1_mhap2_positi… CV    <tibble> <chr>    sex        <formula>    
    ##  6 Omy_Ch28_greb1_mhap2_positi… CV    <tibble> <chr>    age        <formula>    
    ##  7 Omy_Ch28_11625241_C_positio… CV    <tibble> <chr>    vanilla    <formula>    
    ##  8 Omy_Ch28_11625241_C_positio… CV    <tibble> <chr>    sex        <formula>    
    ##  9 Omy_Ch28_11625241_C_positio… CV    <tibble> <chr>    age        <formula>    
    ## 10 Omy_Ch28_greb1_mhap6_positi… CV    <tibble> <chr>    vanilla    <formula>    
    ## # ℹ 98 more rows
…
This is going to be a function of the data tibble, `D`, the vector of
possible genotypes, `g` and the model formula, `m`. Let’s make some
example variables for testing and stuff, by just grabbing elements from
the first row of our `ready_for_lmer` tibble.

``` r
D <- ready_for_lmer$data[[1]]
g <- ready_for_lmer$geno_vec[[1]]
m <- ready_for_lmer$model_formula[[1]]

D
```

    ## # A tibble: 631 × 26
    ##    indiv   spawner_group sex    year hatchery ArchiveID LENGTH Method collection
    ##    <chr>   <chr>         <chr> <dbl> <chr>    <chr>      <dbl> <chr>  <chr>     
    ##  1 M096525 8/24/16       Male   2017 fyke     M096525      464 FYKE … CH        
    ##  2 M096526 9/1/16        Fema…  2017 fyke     M096526      448 FYKE … FRH       
    ##  3 M096527 9/7/16        Fema…  2017 fyke     M096527      452 FYKE … CH        
    ##  4 M096529 9/11/16       Male   2017 fyke     M096529      445 FYKE … MRH       
    ##  5 M096530 9/13/16       Male   2017 fyke     M096530      380 FYKE … CH        
    ##  6 M096532 9/22/16       Fema…  2017 fyke     M096532      431 FYKE … CH        
    ##  7 M096533 9/25/16       Male   2017 fyke     M096533      480 FYKE … CH        
    ##  8 M096534 9/26/16       Male   2017 fyke     M096534      478 FYKE … CH        
    ##  9 M096535 10/1/16       Male   2017 fyke     M096535      500 FYKE … CH        
    ## 10 M096536 11/30/16      Male   2017 fyke     M096536      500 FYKE … CH        
    ## # ℹ 621 more rows
    ## # ℹ 17 more variables: SpawnYear <dbl>, kid_year <dbl>, kid_hatchery <chr>,
    ## #   ma_hatchery <chr>, age_spawn <dbl>, mo_dat <dbl>, mo_da <dbl>,
    ## #   program_assn <chr>, Locus <chr>, genecopy_1 <chr>, genecopy_2 <chr>,
    ## #   genotype_number <dbl>, genotype <chr>, typed_final <chr>, sex_f <fct>,
    ## #   year_f <fct>, age_spawn_f <fct>
…
    ## boundary (singular) fit: see help('isSingular')

    ## fixed-effect model matrix is rank deficient so dropping 1 column / coefficient
    ## fixed-effect model matrix is rank deficient so dropping 1 column / coefficient
    ## fixed-effect model matrix is rank deficient so dropping 1 column / coefficient
    ## fixed-effect model matrix is rank deficient so dropping 1 column / coefficient

    ## boundary (singular) fit: see help('isSingular')
    ## boundary (singular) fit: see help('isSingular')

``` r
mod_results
```

    ## # A tibble: 108 × 7
    ##    Locus_new         group data     geno_vec model_name model_formula lmer      
    ##    <chr>             <chr> <list>   <list>   <chr>      <list>        <list>    
    ##  1 Omy_Ch28_greb1_m… CV    <tibble> <chr>    vanilla    <formula>     <lmrMdLmT>
    ##  2 Omy_Ch28_greb1_m… CV    <tibble> <chr>    sex        <formula>     <lmrMdLmT>
    ##  3 Omy_Ch28_greb1_m… CV    <tibble> <chr>    age        <formula>     <lmrMdLmT>
    ##  4 Omy_Ch28_greb1_m… CV    <tibble> <chr>    vanilla    <formula>     <lmrMdLmT>
    ##  5 Omy_Ch28_greb1_m… CV    <tibble> <chr>    sex        <formula>     <lmrMdLmT>
    ##  6 Omy_Ch28_greb1_m… CV    <tibble> <chr>    age        <formula>     <lmrMdLmT>
    ##  7 Omy_Ch28_1162524… CV    <tibble> <chr>    vanilla    <formula>     <lmrMdLmT>
    ##  8 Omy_Ch28_1162524… CV    <tibble> <chr>    sex        <formula>     <lmrMdLmT>
    ##  9 Omy_Ch28_1162524… CV    <tibble> <chr>    age        <formula>     <lmrMdLmT>
    ## 10 Omy_Ch28_greb1_m… CV    <tibble> <chr>    vanilla    <formula>     <lmrMdLmT>
    ## # ℹ 98 more rows

Great! Now we have just run 108 models. How do we go about getting at
the results? We will talk about that later. We can use `map()`-like
functions to get at things, or we can put all the coefficients and
results into tibbles using the ‘broom.mixed’ package.

## One thing you might to see is the summary of all the models

``` r
mrs <- mod_results %>%
  mutate(summary = map(.x = lmer, .f = summary))
mrs
```

    ## # A tibble: 108 × 8
    ##    Locus_new         group data     geno_vec model_name model_formula lmer      
    ##    <chr>             <chr> <list>   <list>   <chr>      <list>        <list>    
    ##  1 Omy_Ch28_greb1_m… CV    <tibble> <chr>    vanilla    <formula>     <lmrMdLmT>
    ##  2 Omy_Ch28_greb1_m… CV    <tibble> <chr>    sex        <formula>     <lmrMdLmT>
    ##  3 Omy_Ch28_greb1_m… CV    <tibble> <chr>    age        <formula>     <lmrMdLmT>
    ##  4 Omy_Ch28_greb1_m… CV    <tibble> <chr>    vanilla    <formula>     <lmrMdLmT>
    ##  5 Omy_Ch28_greb1_m… CV    <tibble> <chr>    sex        <formula>     <lmrMdLmT>
    ##  6 Omy_Ch28_greb1_m… CV    <tibble> <chr>    age        <formula>     <lmrMdLmT>
    ##  7 Omy_Ch28_1162524… CV    <tibble> <chr>    vanilla    <formula>     <lmrMdLmT>
    ##  8 Omy_Ch28_1162524… CV    <tibble> <chr>    sex        <formula>     <lmrMdLmT>
    ##  9 Omy_Ch28_1162524… CV    <tibble> <chr>    age        <formula>     <lmrMdLmT>
    ## 10 Omy_Ch28_greb1_m… CV    <tibble> <chr>    vanilla    <formula>     <lmrMdLmT>
    ## # ℹ 98 more rows
    ## # ℹ 1 more variable: summary <list>
…
    ## # A tibble: 4 × 8
    ##   effect   group    term            estimate std.error statistic     df  p.value
    ##   <chr>    <chr>    <chr>              <dbl>     <dbl>     <dbl>  <dbl>    <dbl>
    ## 1 fixed    <NA>     (Intercept)        73.1       9.08      8.05   3.35  0.00265
    ## 2 fixed    <NA>     I(d_add)            7.45      4.80      1.55 625.    0.121  
    ## 3 ran_pars year_f   sd__(Intercept)    19.8      NA        NA     NA    NA      
    ## 4 ran_pars Residual sd__Observation    36.3      NA        NA     NA    NA

``` r
augment(x)
```

    ## # A tibble: 631 × 15
    ##    mo_da `I(d_add)` `I(d_dom_with_s)` year_f .fitted .resid   .hat .cooksd
    ##    <dbl>   <I<dbl>>          <I<dbl>> <fct>    <dbl>  <dbl>  <dbl>   <dbl>
    ##  1    38          0                 0 2017      106.  -68.0 0.0484  0.0940
    ##  2    46          0                 0 2017      106.  -60.0 0.0484  0.0732
    ##  3    52          0                 0 2017      106.  -54.0 0.0484  0.0593
    ##  4    56          0                 0 2017      106.  -50.0 0.0484  0.0508
    ##  5    58          0                 0 2017      106.  -48.0 0.0484  0.0468
    ##  6    67          0                 0 2017      106.  -39.0 0.0484  0.0309
    ##  7    70          0                 0 2017      106.  -36.0 0.0484  0.0264
    ##  8    71          0                 0 2017      106.  -35.0 0.0484  0.0249
    ##  9    76          0                 0 2017      106.  -30.0 0.0484  0.0183
    ## 10   136          0                 0 2017      106.   30.0 0.0484  0.0183
    ## # ℹ 621 more rows
    ## # ℹ 7 more variables: .fixed <dbl>, .mu <dbl>, .offset <dbl>, .sqrtXwt <dbl>,
    ## #   .sqrtrwt <dbl>, .weights <dbl>, .wtres <dbl>
…
